…
    ## ── Column specification ────────────────────────────────────────────────────────
    ## Delimiter: ","
    ## chr (2): abstract, term

    ## 
    ## ℹ Use `spec()` to retrieve the full column specification for this data.
    ## ℹ Specify the column types or set `show_col_types = FALSE` to quiet this message.

Tokenize the abstracts and count the number of each token. Do you see
anything interesting? Does removing stop words change what tokens appear
as the most frequent? What are the 5 most common tokens for each search
term after removing stopwords?

    ## # A tibble: 20,567 × 2
    ##    word      n
    ##    <chr> <int>
    ##  1 the   28126
    ##  2 of    24760
    ##  3 and   19993
    ##  4 in    14653
    ##  5 to    10920
    ##  6 a      8245
    ##  7 with   8038
    ##  8 covid  7275
    ##  9 19     7080
    ## 10 is     5649
    ## # … with 20,557 more rows
…
