…
# Question 5

Using the results you got from questions 4. Pick a word and count the
words that appears after and before it.

``` r
mt_samples %>%
   unnest_ngrams(ngram, transcription, n = 2) %>%
   separate(ngram, into = c("word1", "word2"), sep = " ") %>%
   select(word1, word2) %>%
   filter(word1 == "patient") %>%
   count(word2, sort = TRUE)
```

    ## # A tibble: 588 × 2
    ##    word2         n
    ##    <chr>     <int>
    ##  1 was        6293
    ##  2 is         3332
    ##  3 has        1417
    ##  4 tolerated   994
    ##  5 had         888
    ##  6 will        616
    ##  7 denies      552
    ##  8 and         377
    ##  9 states      363
    ## 10 does        334
    ## # … with 578 more rows

``` r
mt_samples %>%
   unnest_ngrams(ngram, transcription, n = 2) %>%
   separate(ngram, into = c("word1", "word2"), sep = " ") %>%
   select(word1, word2) %>%
   filter(word2 == "patient") %>%
   count(word1, sort = TRUE)
```

    ## # A tibble: 269 × 2
    ##    word1         n
    ##    <chr>     <int>
    ##  1 the       20307
    ##  2 this        470
    ##  3 history     101
    ##  4 a            67
    ##  5 and          47
    ##  6 procedure    32
    ##  7 female       26
    ##  8 with         25
    ##  9 use          24
    ## 10 old          23
    ## # … with 259 more rows
…
``` r
mt_samples %>%
   unnest_tokens(word, transcription) %>%
   anti_join(stop_words, by = "word") %>%
   subset(!grepl('^\\d+$', word)) %>%
   group_by(medical_specialty) %>%
   count(word,sort=TRUE) %>%
   top_n(1,n)
```

    ## # A tibble: 42 × 3
    ## # Groups:   medical_specialty [40]
    ##    medical_specialty          word        n
    ##    <chr>                      <chr>   <int>
    ##  1 Surgery                    patient  4855
    ##  2 Consult - History and Phy. patient  3046
    ##  3 Orthopedic                 patient  1711
    ##  4 Cardiovascular / Pulmonary left     1550
    ##  5 General Medicine           patient  1356
    ##  6 Gastroenterology           patient   872
    ##  7 Urology                    patient   776
    ##  8 Radiology                  left      701
    ##  9 Emergency Room Reports     patient   685
    ## 10 Discharge Summary          patient   672
    ## # … with 32 more rows

``` r
mt_samples %>%
   unnest_tokens(word, transcription) %>%
   anti_join(stop_words, by = "word") %>%
   subset(!grepl('^\\d+$', word)) %>%
   group_by(medical_specialty) %>%
   count(word,sort=TRUE) %>%
   top_n(5,n) %>%
   arrange(desc(medical_specialty))
```

    ## # A tibble: 210 × 3
    ## # Groups:   medical_specialty [40]
    ##    medical_specialty word           n
    ##    <chr>             <chr>      <int>
    ##  1 Urology           patient      776
    ##  2 Urology           bladder      357
    ##  3 Urology           procedure    306
    ##  4 Urology           left         288
    ##  5 Urology           history      196
    ##  6 Surgery           patient     4855
    ##  7 Surgery           left        3263
    ##  8 Surgery           procedure   3243
    ##  9 Surgery           anesthesia  1687
    ## 10 Surgery           incision    1641
    ## # … with 200 more rows
…
